{
    "title":"ExempleDemo2",
    "author":"mamadOUologuem",
    "date":"22 June 2017",
    "description":"Ce quiz est un exemple élaboré afin de tester l'outil quiz Editor",
    "questions":[
        {
            "type":"automatonEquiv",
            "instructionHTML":"Dessine l'automate qui reconnaît le mot \"Aude\"",
            "automatonQuestion":null,
            "automatonAnswer":"0\n1\n2\n3\n4\n\n\n0 A 1\n1 u 2\n2 d 3\n3 e 4\n\n<representation type='image/svg+xml'>\n<svg xmlns=\"http://www.w3.org/2000/svg\" xmlns:xlink=\"http://www.w3.org/1999/xlink\" width=\"507\" height=\"405\" viewBox=\"7.8901 -60.8628 662.22 528.992\"> <g class=\"graph\" data-id=\"graph1\"> <title>automaton</title><g class=\"node\" data-id=\"MA==\"><title>0</title><ellipse fill=\"white\" fill-opacity=\"0\" stroke=\"black\" rx=\"17.8879\" ry=\"18.3848\" cx=\"130\" cy=\"130.63333129882812\"></ellipse><text text-anchor=\"middle\" font-family=\"Times Roman, serif\" font-size=\"14.00\" x=\"130\" y=\"134.63333129882812\">0</text></g><g data-id=\"initialStateArrow\"><title>_begin-&gt;0</title><path stroke=\"black\" d=\"M74.11210060119629,130.63333129882812C93.44543393452962,130.63333129882812 102.77876726786296,130.63333129882812 102.11210060119629,130.63333129882812\"></path><polygon stroke=\"black\" fill=\"black\" points=\"112.11210060119629,130.63333129882812 102.11210060119629,126.63333129882812 107.11210060119629,130.63333129882812 102.11210060119629,130.63333129882812 102.11210060119629,130.63333129882812 102.11210060119629,130.63333129882812 107.11210060119629,130.63333129882812 102.11210060119629,134.63333129882812 112.11210060119629,130.63333129882812 112.11210060119629,130.63333129882812\"></polygon></g><g class=\"node\" data-id=\"MQ==\"><title>1</title><ellipse fill=\"white\" fill-opacity=\"0\" stroke=\"black\" rx=\"17.8879\" ry=\"18.3848\" cx=\"353\" cy=\"131.63333129882812\"></ellipse><text text-anchor=\"middle\" font-family=\"Times Roman, serif\" font-size=\"14.00\" x=\"353\" y=\"135.63333129882812\">1</text></g><g class=\"node\" data-id=\"Mg==\"><title>2</title><ellipse fill=\"white\" fill-opacity=\"0\" stroke=\"black\" rx=\"17.8879\" ry=\"18.3848\" cx=\"586\" cy=\"173.63333129882812\"></ellipse><text text-anchor=\"middle\" font-family=\"Times Roman, serif\" font-size=\"14.00\" x=\"586\" y=\"177.63333129882812\">2</text></g><g class=\"node\" data-id=\"Mw==\"><title>3</title><ellipse fill=\"white\" fill-opacity=\"0\" stroke=\"black\" rx=\"17.8879\" ry=\"18.3848\" cx=\"348\" cy=\"273.6333312988281\"></ellipse><text text-anchor=\"middle\" font-family=\"Times Roman, serif\" font-size=\"14.00\" x=\"348\" y=\"277.6333312988281\">3</text></g><g data-id=\"MA== MQ==\" class=\"edge\"><title>0-&gt;1</title><path fill=\"none\" stroke=\"black\" d=\"M147.888,130.714 C206.963,130.978 266.037,131.243 325.112,131.508\"></path><polygon fill=\"black\" stroke=\"black\" points=\"325.128,128.008 335.112,131.553 325.097,135.008 325.128,128.008\"></polygon><text text-anchor=\"middle\" font-family=\"Times Roman,serif\" font-size=\"14.00\" x=\"236.5000457763672\" y=\"126.11090850830078\">A</text></g><g data-id=\"MQ== Mg==\" class=\"edge\"><title>1-&gt;2</title><path fill=\"none\" stroke=\"black\" d=\"M370.619,134.809 C433.259,146.101 495.899,157.392 558.54,168.683\"></path><polygon fill=\"black\" stroke=\"black\" points=\"559.161,165.239 568.381,170.457 557.919,172.128 559.161,165.239\"></polygon><text text-anchor=\"middle\" font-family=\"Times Roman,serif\" font-size=\"14.00\" x=\"464.5793151855469\" y=\"146.746337890625\">u</text></g><g data-id=\"Mg== Mw==\" class=\"edge\"><title>2-&gt;3</title><path fill=\"none\" stroke=\"black\" d=\"M569.442,180.59 C504.22,207.994 438.999,235.399 373.777,262.803\"></path><polygon fill=\"black\" stroke=\"black\" points=\"375.133,266.029 364.558,266.676 372.421,259.576 375.133,266.029\"></polygon><text text-anchor=\"middle\" font-family=\"Times Roman,serif\" font-size=\"14.00\" x=\"471.6297387681869\" y=\"216.7451223578531\">d</text></g><g class=\"node\" data-id=\"NA==\"><title>4</title><ellipse fill=\"white\" fill-opacity=\"0\" stroke=\"black\" rx=\"17.8879\" ry=\"18.3848\" cx=\"126\" cy=\"276.6333312988281\"></ellipse><text text-anchor=\"middle\" font-family=\"Times Roman, serif\" font-size=\"14.00\" x=\"126\" y=\"280.6333312988281\">4</text></g><g data-id=\"Mw== NA==\" class=\"edge\"><title>3-&gt;4</title><path fill=\"none\" stroke=\"black\" d=\"M330.114,273.875 C271.371,274.669 212.628,275.463 153.885,276.257\"></path><polygon fill=\"black\" stroke=\"black\" points=\"153.933,279.756 143.886,276.392 153.838,272.757 153.933,279.756\"></polygon><text text-anchor=\"middle\" font-family=\"Times Roman,serif\" font-size=\"14.00\" x=\"241.98350048576913\" y=\"270.52014990293486\">e</text></g></g></svg>\n</representation>\n",
            "audescriptCode":"",
            "point":0
        },
        {
            "type":"automatonEquiv",
            "instructionHTML":"Dessine le même automate que celui-ci",
            "automatonQuestion":"0\n1\n2\n\n\n0 O 1\n1 K 2\n\n<representation type='image/svg+xml'>\n<svg xmlns=\"http://www.w3.org/2000/svg\" xmlns:xlink=\"http://www.w3.org/1999/xlink\" width=\"507\" height=\"231\" viewBox=\"25.5 -20.8667 507 231\"> <g class=\"graph\" data-id=\"graph1\"> <title>automaton</title><g class=\"node\" data-id=\"MA==\"><title>0</title><ellipse fill=\"white\" fill-opacity=\"0\" stroke=\"black\" rx=\"17.8879\" ry=\"18.3848\" cx=\"160\" cy=\"145.63333129882812\"></ellipse><text text-anchor=\"middle\" font-family=\"Times Roman, serif\" font-size=\"14.00\" x=\"160\" y=\"149.63333129882812\">0</text></g><g data-id=\"initialStateArrow\"><title>_begin-&gt;0</title><path stroke=\"black\" d=\"M104.11210060119629,145.63333129882812C123.44543393452962,145.63333129882812 132.77876726786295,145.63333129882812 132.1121006011963,145.63333129882812\"></path><polygon stroke=\"black\" fill=\"black\" points=\"142.1121006011963,145.63333129882812 132.1121006011963,141.63333129882812 137.1121006011963,145.63333129882812 132.1121006011963,145.63333129882812 132.1121006011963,145.63333129882812 132.1121006011963,145.63333129882812 137.1121006011963,145.63333129882812 132.1121006011963,149.63333129882812 142.1121006011963,145.63333129882812 142.1121006011963,145.63333129882812\"></polygon></g><g class=\"node\" data-id=\"MQ==\"><title>1</title><ellipse fill=\"white\" fill-opacity=\"0\" stroke=\"black\" rx=\"17.8879\" ry=\"18.3848\" cx=\"295\" cy=\"43.633331298828125\" class=\"\"></ellipse><text text-anchor=\"middle\" font-family=\"Times Roman, serif\" font-size=\"14.00\" x=\"295\" y=\"47.633331298828125\">1</text></g><g class=\"node\" data-id=\"Mg==\"><title>2</title><ellipse fill=\"white\" fill-opacity=\"0\" stroke=\"black\" rx=\"17.8879\" ry=\"18.3848\" cx=\"436\" cy=\"137.63333129882812\"></ellipse><text text-anchor=\"middle\" font-family=\"Times Roman, serif\" font-size=\"14.00\" x=\"436\" y=\"141.63333129882812\">2</text></g><g data-id=\"MA== MQ==\" class=\"edge\"><title>0-&gt;1</title><path fill=\"none\" stroke=\"black\" d=\"M174.413,134.744 C207.145,110.013 239.877,85.282 272.609,60.5511\"></path><polygon fill=\"black\" stroke=\"black\" points=\"274.719,63.3436 280.587,54.5228 270.499,57.7586 274.719,63.3436\"></polygon><text text-anchor=\"middle\" font-family=\"Times Roman,serif\" font-size=\"14.00\" x=\"222.67454528808594\" y=\"89.6317367553711\">O</text></g><g data-id=\"MQ== Mg==\" class=\"edge\"><title>1-&gt;2</title><path fill=\"none\" stroke=\"black\" d=\"M310.007,53.6382 C344.229,76.4526 378.451,99.2671 412.672,122.081\"></path><polygon fill=\"black\" stroke=\"black\" points=\"414.614,119.169 420.993,127.628 410.731,124.994 414.614,119.169\"></polygon><text text-anchor=\"middle\" font-family=\"Times Roman,serif\" font-size=\"14.00\" x=\"359.8796081542969\" y=\"85.79707336425781\">K</text></g></g></svg>\n</representation>\n",
            "automatonAnswer":"0\n1\n2\n\n\n0 O 2\n2 K 1\n\n<representation type='image/svg+xml'>\n<svg xmlns=\"http://www.w3.org/2000/svg\" xmlns:xlink=\"http://www.w3.org/1999/xlink\" width=\"507\" height=\"405\" viewBox=\"48 -3.36667 507 405\"> <g class=\"graph\" data-id=\"graph1\"> <title>automaton</title><g class=\"node\" data-id=\"MA==\"><title>0</title><ellipse fill=\"white\" fill-opacity=\"0\" stroke=\"black\" rx=\"17.8879\" ry=\"18.3848\" cx=\"201\" cy=\"248.63333129882812\"></ellipse><text text-anchor=\"middle\" font-family=\"Times Roman, serif\" font-size=\"14.00\" x=\"201\" y=\"252.63333129882812\">0</text></g><g data-id=\"initialStateArrow\"><title>_begin-&gt;0</title><path stroke=\"black\" d=\"M145.1121006011963,248.63333129882812C164.44543393452963,248.63333129882812 173.77876726786295,248.63333129882812 173.1121006011963,248.63333129882812\"></path><polygon stroke=\"black\" fill=\"black\" points=\"183.1121006011963,248.63333129882812 173.1121006011963,244.63333129882812 178.1121006011963,248.63333129882812 173.1121006011963,248.63333129882812 173.1121006011963,248.63333129882812 173.1121006011963,248.63333129882812 178.1121006011963,248.63333129882812 173.1121006011963,252.63333129882812 183.1121006011963,248.63333129882812 183.1121006011963,248.63333129882812\"></polygon></g><g class=\"node\" data-id=\"MQ==\"><title>1</title><ellipse fill=\"white\" fill-opacity=\"0\" stroke=\"black\" rx=\"17.8879\" ry=\"18.3848\" cx=\"440\" cy=\"229.63333129882812\"></ellipse><text text-anchor=\"middle\" font-family=\"Times Roman, serif\" font-size=\"14.00\" x=\"440\" y=\"233.63333129882812\">1</text></g><g class=\"node\" data-id=\"Mg==\"><title>2</title><ellipse fill=\"white\" fill-opacity=\"0\" stroke=\"black\" rx=\"17.8879\" ry=\"18.3848\" cx=\"310\" cy=\"149.63333129882812\"></ellipse><text text-anchor=\"middle\" font-family=\"Times Roman, serif\" font-size=\"14.00\" x=\"310\" y=\"153.63333129882812\">2</text></g><g data-id=\"MA== Mg==\" class=\"edge\"><title>0-&gt;2</title><path fill=\"none\" stroke=\"black\" d=\"M214.404,236.459 C239.334,213.816 264.264,191.174 289.194,168.531\"></path><polygon fill=\"black\" stroke=\"black\" points=\"291.547,171.122 296.596,161.808 286.84,165.94 291.547,171.122\"></polygon><text text-anchor=\"middle\" font-family=\"Times Roman,serif\" font-size=\"14.00\" x=\"251.58043031007642\" y=\"197.23764038085938\">O</text></g><g data-id=\"Mg== MQ==\" class=\"edge\"><title>2-&gt;1</title><path fill=\"none\" stroke=\"black\" d=\"M325.347,159.078 C355.61,177.701 385.873,196.325 416.136,214.948\"></path><polygon fill=\"black\" stroke=\"black\" points=\"417.971,211.967 424.653,220.189 414.302,217.929 417.971,211.967\"></polygon><text text-anchor=\"middle\" font-family=\"Times Roman,serif\" font-size=\"14.00\" x=\"370.74171447753906\" y=\"182.01284790039062\">K</text></g></g></svg>\n</representation>\n",
            "audescriptCode":"",
            "point":0

        },
        {
            "type":"mcq",
            "instruction":"L'alphabet d'autommate s'appelle",
            "answers":["b"],
            "possibilities":[
                {"id":"a","text":"Zeta"},
                {"id":"b","text":"Sigma"},
                {"id":"c","text":"Alpha"},
                {"id":"d","text":"Mugiwara"},
                {"id":"e","text":"Aucun de ceux là"}
            ],
            "point":0
        },
        {
            "type":"automatonEquiv",
            "instructionHTML":"Dessine juste un automate",
            "automatonQuestion":null,
            "automatonAnswer":"0\n\n0\n\n0 a 0\n\n<representation type='image/svg+xml'>\n<svg xmlns=\"http://www.w3.org/2000/svg\" xmlns:xlink=\"http://www.w3.org/1999/xlink\" width=\"507\" height=\"405\" viewBox=\"-89.5 -60.53 507 405\"> <g class=\"graph\" data-id=\"graph1\"> <title>automaton</title><g class=\"node\" data-id=\"MA==\"><title>0</title><ellipse fill=\"white\" fill-opacity=\"0\" stroke=\"black\" rx=\"17.8879\" ry=\"18.3848\" cx=\"183\" cy=\"159.63333129882812\"></ellipse><ellipse fill=\"white\" fill-opacity=\"0\" stroke=\"black\" rx=\"21.887901306152344\" ry=\"22.384796142578125\" cx=\"183\" cy=\"159.63333129882812\"></ellipse><text text-anchor=\"middle\" font-family=\"Times Roman, serif\" font-size=\"14.00\" x=\"183\" y=\"163.63333129882812\">0</text></g><g data-id=\"initialStateArrow\"><title>_begin-&gt;0</title><path stroke=\"black\" d=\"M123.11209869384766,159.63333129882812C142.445432027181,159.63333129882812 151.7787653605143,159.63333129882812 151.11209869384766,159.63333129882812\"></path><polygon stroke=\"black\" fill=\"black\" points=\"161.11209869384766,159.63333129882812 151.11209869384766,155.63333129882812 156.11209869384766,159.63333129882812 151.11209869384766,159.63333129882812 151.11209869384766,159.63333129882812 151.11209869384766,159.63333129882812 156.11209869384766,159.63333129882812 151.11209869384766,163.63333129882812 161.11209869384766,159.63333129882812 161.11209869384766,159.63333129882812\"></polygon></g><g data-id=\"MA== MA==\" class=\"edge\"><title>0-&gt;0</title><path fill=\"none\" stroke=\"black\" d=\"M177.627,137.934 C176.627,127.934 175,118.934 183,118.934 C188,118.934 192,121.934 193,127.934\"></path><polygon fill=\"black\" stroke=\"black\" points=\"196.338,128.986 189.72,138.33 189.662,126.881 196.338,128.986\"></polygon><text text-anchor=\"middle\" font-family=\"Times Roman,serif\" font-size=\"14.00\" x=\"183\" y=\"113.93353271484375\">a</text></g></g></svg>\n</representation>\n",
            "audescriptCode":"",
            "point":0
        }
    ]
}
